{
   "samples":[

   ],
   "watering_events":[

   ],
   "first_not_definitive_value_datetime_utc":"2016-11-12T09:40:43Z",
   "user_config_version":45,
   "garden_status_version":6581,
   "errors":[

   ],
   "server_identifier":"2.0.77 November 2th 2016"
}